{
  "project_info": {
    "project_number": "856645639173",
    "firebase_url": "https://toyota-pickering.firebaseio.com",
    "project_id": "toyota-pickering",
    "storage_bucket": "toyota-pickering.appspot.com"
  },
  "client": [
    {
      "client_info": {
        "mobilesdk_app_id": "1:856645639173:android:10b93d91434827b9",
        "android_client_info": {
          "package_name": "com.pickeringtoyota.businessmanager"
        }
      },
      "oauth_client": [
        {
          "client_id": "856645639173-qnoa04nc31g8p73fcjrd41dmkr1bcu7i.apps.googleusercontent.com",
          "client_type": 1,
          "android_info": {
            "package_name": "com.pickeringtoyota.businessmanager",
            "certificate_hash": "ce7460b456f1881dc02e9a3f700f172d04db9de3"
          }
        },
        {
          "client_id": "856645639173-ku9vud4ja3687oag1105fegnoud041be.apps.googleusercontent.com",
          "client_type": 3
        }
      ],
      "api_key": [
        {
          "current_key": "AIzaSyCAeojIAg-aLTD-EaLH7wqJn_gKFergx7k"
        }
      ],
      "services": {
        "analytics_service": {
          "status": 1
        },
        "appinvite_service": {
          "status": 2,
          "other_platform_oauth_client": [
            {
              "client_id": "856645639173-ku9vud4ja3687oag1105fegnoud041be.apps.googleusercontent.com",
              "client_type": 3
            }
          ]
        },
        "ads_service": {
          "status": 2
        }
      }
    },
    {
      "client_info": {
        "mobilesdk_app_id": "1:856645639173:android:c7909e51f1159822",
        "android_client_info": {
          "package_name": "com.pickeringtoyota.receptionapp"
        }
      },
      "oauth_client": [
        {
          "client_id": "856645639173-mabkndkvsbcn4l5grv0jbph76fkq9bju.apps.googleusercontent.com",
          "client_type": 1,
          "android_info": {
            "package_name": "com.pickeringtoyota.receptionapp",
            "certificate_hash": "ce7460b456f1881dc02e9a3f700f172d04db9de3"
          }
        },
        {
          "client_id": "856645639173-ku9vud4ja3687oag1105fegnoud041be.apps.googleusercontent.com",
          "client_type": 3
        }
      ],
      "api_key": [
        {
          "current_key": "AIzaSyCAeojIAg-aLTD-EaLH7wqJn_gKFergx7k"
        }
      ],
      "services": {
        "analytics_service": {
          "status": 1
        },
        "appinvite_service": {
          "status": 2,
          "other_platform_oauth_client": [
            {
              "client_id": "856645639173-ku9vud4ja3687oag1105fegnoud041be.apps.googleusercontent.com",
              "client_type": 3
            }
          ]
        },
        "ads_service": {
          "status": 2
        }
      }
    }
  ],
  "configuration_version": "1"
}